{
  "project": {
    "ci_config_path": "",
    "path_with_namespace": "gitlab-org/cloud-native/gitlab-operator",
    "git_http_url": "https://gitlab.com/gitlab-org/cloud-native/gitlab-operator.git",
    "default_branch": "master",
    "http_url": "https://gitlab.com/gitlab-org/cloud-native/gitlab-operator.git",
    "description": "Operator for GitLab",
    "homepage": "https://gitlab.com/gitlab-org/cloud-native/gitlab-operator",
    "avatar_url": "https://gitlab.com/uploads/-/system/project/avatar/18899486/gitlab-operator-project.png",
    "visibility_level": 20,
    "namespace": "Cloud Native",
    "id": 18899486,
    "web_url": "https://gitlab.com/gitlab-org/cloud-native/gitlab-operator",
    "url": "git@gitlab.com:gitlab-org/cloud-native/gitlab-operator.git",
    "ssh_url": "git@gitlab.com:gitlab-org/cloud-native/gitlab-operator.git",
    "git_ssh_url": "git@gitlab.com:gitlab-org/cloud-native/gitlab-operator.git",
    "name": "GitLab Operator"
  },
  "object_kind": "note",
  "event_type": "note",
  "issue": {
    "url": "https://gitlab.com/gitlab-org/cloud-native/gitlab-operator/-/issues/502",
    "closed_at": null,
    "severity": "unknown",
    "human_time_change": null,
    "project_id": 18899486,
    "assignee_ids": [],
    "assignee_id": null,
    "iid": 502,
    "discussion_locked": null,
    "created_at": "2021-12-09 21:32:57 UTC",
    "human_total_time_spent": null,
    "id": 98780371,
    "labels": [
      {
        "group_id": 9970,
        "created_at": "2021-11-18 21:26:27 UTC",
        "template": false,
        "project_id": null,
        "description": "Distribution Build Team",
        "title": "Distribution:Build",
        "updated_at": "2021-11-18 22:04:33 UTC",
        "color": "#cd5b45",
        "id": 22652295,
        "type": "GroupLabel"
      },
      {
        "id": 11717757,
        "color": "#004E00",
        "template": false,
        "updated_at": "2019-08-09 20:05:46 UTC",
        "project_id": null,
        "group_id": 9970,
        "created_at": "2019-08-09 20:05:46 UTC",
        "type": "GroupLabel",
        "description": "Issues to be scheduled for future release",
        "title": "For Scheduling"
      },
      {
        "color": "#AD4363",
        "id": 9852041,
        "group_id": 9970,
        "template": false,
        "description": "Issues for the Enablement stage of the DevOps livecycle (e.g., Geo, Application Performance, Distribution, Search)",
        "created_at": "2019-03-05 21:09:28 UTC",
        "type": "GroupLabel",
        "title": "devops::enablement",
        "updated_at": "2020-05-21 15:58:32 UTC",
        "project_id": null
      },
      {
        "template": false,
        "type": "GroupLabel",
        "project_id": null,
        "id": 10690780,
        "color": "#A8D695",
        "updated_at": "2019-05-22 20:12:21 UTC",
        "description": "Issues belonging to the Distribution group of the Enablement stage of the DevOps lifecycle. See https://about.gitlab.com/handbook/product/categories/#distribution-group",
        "group_id": 9970,
        "title": "group::distribution",
        "created_at": "2019-05-22 20:12:21 UTC"
      },
      {
        "type": "GroupLabel",
        "color": "#FFECDB",
        "project_id": null,
        "description": "Issues for further discussion by project Maintainers",
        "created_at": "2020-11-23 17:51:04 UTC",
        "updated_at": "2020-11-23 17:51:04 UTC",
        "group_id": 9970,
        "template": false,
        "id": 17179892,
        "title": "maintainer-discussion"
      },
      {
        "description": "Issues related to the Enablement section",
        "updated_at": "2020-05-11 22:13:49 UTC",
        "color": "#F0AD4E",
        "project_id": null,
        "title": "section::enablement",
        "type": "GroupLabel",
        "id": 14918396,
        "group_id": 9970,
        "template": false,
        "created_at": "2020-05-11 22:13:49 UTC"
      }
    ],
    "human_time_estimate": null,
    "title": "[Spike] Provision clusters (OpenShift and otherwise) via IAC means",
    "confidential": false,
    "relative_position": 2037218796,
    "state_id": 1,
    "duplicated_to_id": null,
    "state": "opened",
    "time_estimate": 0,
    "total_time_spent": 0,
    "updated_by_id": 4849,
    "weight": null,
    "last_edited_by_id": null,
    "milestone_id": null,
    "last_edited_at": null,
    "updated_at": "2022-01-31 17:20:23 UTC",
    "description": "Our cluster provisioning slowly becomes more involved over time, with requirements like gitlab-org/cloud-native/gitlab-operator#489 popping in, and potentially OLM-enabled generic k8s cluster etc. When we have to re-deploy existing clusters or create new ones it would be helpful to have automated system provision everything as needed without reliance on manual steps.",
    "time_change": 0,
    "author_id": 8814129,
    "moved_to_id": null,
    "due_date": null
  },
  "user": {
    "avatar_url": "https://gitlab.com/uploads/-/system/user/avatar/8814129/avatar.png",
    "name": "Dmytro Makovey",
    "email": "[REDACTED]",
    "id": 8814129,
    "username": "dmakovey"
  },
  "object_attributes": {
    "original_position": null,
    "resolved_by_id": null,
    "id": 826963813,
    "attachment": null,
    "description": "OpenShift clusters can be managed with [Hive](https://github.com/openshift/hive)\n\nOne thing to Note: Hive needs to be deployed either manually or using OLM into *existing* cluster that will act as a \"controller\" for the rest of the installations. \n\nAfter initial deploy Hive allows for install of [specific version of OpenShift](https://github.com/openshift/hive/blob/master/docs/using-hive.md#openshift-version) into target cluster.",
    "url": "https://gitlab.com/gitlab-org/cloud-native/gitlab-operator/-/issues/502#note_826963813",
    "resolved_at": null,
    "updated_by_id": null,
    "type": null,
    "discussion_id": "5d5aab635be2259a50335b6323e2484c69685bd2",
    "system": false,
    "st_diff": null,
    "author_id": 8814129,
    "position": null,
    "noteable_id": 98780371,
    "project_id": 18899486,
    "created_at": "2022-01-31 17:20:23 UTC",
    "change_position": null,
    "line_code": null,
    "updated_at": "2022-01-31 17:20:23 UTC",
    "note": "OpenShift clusters can be managed with [Hive](https://github.com/openshift/hive)\n\nOne thing to Note: Hive needs to be deployed either manually or using OLM into *existing* cluster that will act as a \"controller\" for the rest of the installations. \n\nAfter initial deploy Hive allows for install of [specific version of OpenShift](https://github.com/openshift/hive/blob/master/docs/using-hive.md#openshift-version) into target cluster.",
    "noteable_type": "Issue",
    "commit_id": null,
    "resolved_by_push": null
  },
  "project_id": 18899486,
  "repository": {
    "description": "Operator for GitLab",
    "url": "git@gitlab.com:gitlab-org/cloud-native/gitlab-operator.git",
    "name": "GitLab Operator",
    "homepage": "https://gitlab.com/gitlab-org/cloud-native/gitlab-operator"
  }
}
